{
  "images" : [
    {
      "filename" : "portrait-of-female-high-fashion-model-in-neon-ligh-2021-08-26-17-43-02-utc 1.pdf",
      "idiom" : "universal",
      "scale" : "1x"
    },
    {
      "idiom" : "universal",
      "scale" : "2x"
    },
    {
      "idiom" : "universal",
      "scale" : "3x"
    }
  ],
  "info" : {
    "author" : "xcode",
    "version" : 1
  }
}
